5
4
1 2 1
1 3 1
3 4 1
3 5 1
10
9
1 2 1
1 3 1
3 4 1
3 5 1
4 6 1
6 8 1
4 7 1
5 9 1
5 10 1
20
19
1 2 1
1 3 1
3 4 1
3 5 1
4 6 1
4 7 1
6 10 1
6 11 1
10 18 1
10 19 1
11 20 1
7 12 1
7 13 1
5 8 1
5 9 1
8 14 1
8 15 1
9 16 1
9 17 1
40
39
1 2 1
1 3 1
3 4 1
3 5 1
4 6 1
4 7 1
6 10 1
6 11 1
10 18 1
10 19 1
11 20 1
7 12 1
7 13 1
5 8 1
5 9 1
8 14 1
8 15 1
9 16 1
9 17 1
17 21 1
21 22 1
22 23 1
23 24 1
23 25 1
25 26 1
26 27 1
26 28 1
25 30 1
30 29 1
30 31 1
24 32 1
32 33 1
32 34 1
24 35 1
35 37 1
37 38 1
35 36 1
36 39 1
36 40 1
5
4
1 2 1
1 3 1
1 4 1
1 5 1
10
9
1 2 1
1 3 1
1 4 1
1 5 1
1 6 1
1 7 1
1 8 1
1 9 1
1 10 1
20
19
1 2 1
1 3 1
1 4 1
1 5 1
1 6 1
1 7 1
1 8 1
1 9 1
1 10 1
1 11 1
1 12 1
1 13 1 
1 14 1
1 15 1
1 16 1
1 17 1
1 18 1
1 19 1
1 20 1
40
39
1 2 1
1 3 1
1 4 1
1 5 1
1 6 1
1 7 1
1 8 1
1 9 1
1 10 1
1 11 1
1 12 1
1 13 1 
1 14 1
1 15 1
1 16 1
1 17 1
1 18 1
1 19 1
1 20 1
1 21 1
1 22 1
1 23 1
1 24 1
1 25 1
1 26 1
1 27 1
1 28 1
1 29 1
1 30 1
1 31 1
1 32 1
1 33 1
1 34 1
1 35 1
1 36 1
1 37 1
1 38 1
1 39 1
1 40 1


0